# Blender MTL File: 'Sketchfab_2018_04_11_02_02_40.blend'
# Material Count: 1

newmtl White
Ns 506.250000
Ka 1.000000 1.000000 1.000000
Kd 0.800000 0.800000 0.800000
Ks 0.500000 0.500000 0.500000
Ke 0.000000 0.000000 0.000000
Ni 1.450000
d 1.000000
illum 2
map_Bump -bm 2.000000 D:\\Работа\\Blender\\JBL\\Normals1.png
refl D:\\Работа\\Blender\\JBL\\JBL_Metalness.png
