# Blender MTL File: 'portal.blend'
# Material Count: 5

newmtl Material
Ns 225.000000
Ka 1.000000 1.000000 1.000000
Kd 0.800000 0.800000 0.800000
Ks 0.500000 0.500000 0.500000
Ke 0.000000 0.000000 0.000000
Ni 1.450000
d 1.000000
illum 2
map_Kd A:\\Studium\\Sopra\\git\\Workspace air\\TowerDefense\\core\\assets\\portalModel\\texturas\\portal.jpg

newmtl Material.001
Ns 225.000000
Ka 1.000000 1.000000 1.000000
Kd 0.800000 0.800000 0.800000
Ks 0.500000 0.500000 0.500000
Ke 0.000000 0.000000 0.000000
Ni 1.450000
d 1.000000
illum 2
map_Kd A:\\Studium\\Sopra\\git\\Workspace air\\TowerDefense\\core\\assets\\portalModel\\texturas\\obsidiana.jpg

newmtl Material.002
Ns 225.000000
Ka 1.000000 1.000000 1.000000
Kd 0.800000 0.800000 0.800000
Ks 0.500000 0.500000 0.500000
Ke 0.000000 0.000000 0.000000
Ni 1.450000
d 1.000000
illum 2
map_Kd A:\\Studium\\Sopra\\git\\Workspace air\\TowerDefense\\core\\assets\\portalModel\\texturas\\obsidiana.jpg

newmtl Material.003
Ns 225.000000
Ka 1.000000 1.000000 1.000000
Kd 0.800000 0.800000 0.800000
Ks 0.500000 0.500000 0.500000
Ke 0.000000 0.000000 0.000000
Ni 1.450000
d 1.000000
illum 2
map_Kd A:\\Studium\\Sopra\\git\\Workspace air\\TowerDefense\\core\\assets\\portalModel\\texturas\\obsidiana.jpg

newmtl Material.004
Ns 225.000000
Ka 1.000000 1.000000 1.000000
Kd 0.800000 0.800000 0.800000
Ks 0.500000 0.500000 0.500000
Ke 0.000000 0.000000 0.000000
Ni 1.450000
d 1.000000
illum 2
map_Kd A:\\Studium\\Sopra\\git\\Workspace air\\TowerDefense\\core\\assets\\portalModel\\texturas\\obsidiana.jpg
