# Blender v2.83.2 OBJ File: 'portal.blend'
# www.blender.org
mtllib portal.mtl
o Cube_Cube.001
v -0.900000 0.064360 0.900000
v -0.900000 0.164360 1.000000
v -1.000000 0.164360 0.900000
v -0.900000 1.964360 1.000000
v -0.900000 2.064360 0.900000
v -1.000000 1.964360 0.900000
v -0.900000 0.064360 -0.900000
v -1.000000 0.164360 -0.900000
v -0.900000 0.164360 -1.000000
v -0.900000 2.064360 -0.900000
v -0.900000 1.964360 -1.000000
v -1.000000 1.964360 -0.900000
v 0.900000 0.064360 0.900000
v 1.000000 0.164360 0.900000
v 0.900000 0.164360 1.000000
v 0.900000 2.064360 0.900000
v 0.900000 1.964360 1.000000
v 1.000000 1.964360 0.900000
v 0.900000 0.064360 -0.900000
v 0.900000 0.164360 -1.000000
v 1.000000 0.164360 -0.900000
v 0.900000 2.064360 -0.900000
v 1.000000 1.964360 -0.900000
v 0.900000 1.964360 -1.000000
v 1.100000 0.064360 0.900000
v 1.100000 0.164360 1.000000
v 1.000000 0.164360 0.900000
v 1.100000 1.964360 1.000000
v 1.100000 2.064360 0.900000
v 1.000000 1.964360 0.900000
v 1.100000 0.064360 -0.900000
v 1.000000 0.164360 -0.900000
v 1.100000 0.164360 -1.000000
v 1.100000 2.064360 -0.900000
v 1.100000 1.964360 -1.000000
v 1.000000 1.964360 -0.900000
v 2.900000 0.064360 0.900000
v 3.000000 0.164360 0.900000
v 2.900000 0.164360 1.000000
v 2.900000 2.064360 0.900000
v 2.900000 1.964360 1.000000
v 3.000000 1.964360 0.900000
v 2.900000 0.064360 -0.900000
v 2.900000 0.164360 -1.000000
v 3.000000 0.164360 -0.900000
v 2.900000 2.064360 -0.900000
v 3.000000 1.964360 -0.900000
v 2.900000 1.964360 -1.000000
v 3.100000 0.064360 0.900000
v 3.100000 0.164360 1.000000
v 3.000000 0.164360 0.900000
v 3.100000 1.964360 1.000000
v 3.100000 2.064360 0.900000
v 3.000000 1.964360 0.900000
v 3.100000 0.064360 -0.900000
v 3.000000 0.164360 -0.900000
v 3.100000 0.164360 -1.000000
v 3.100000 2.064360 -0.900000
v 3.100000 1.964360 -1.000000
v 3.000000 1.964360 -0.900000
v 4.900000 0.064360 0.900000
v 5.000000 0.164360 0.900000
v 4.900000 0.164360 1.000000
v 4.900000 2.064360 0.900000
v 4.900000 1.964360 1.000000
v 5.000000 1.964360 0.900000
v 4.900000 0.064360 -0.900000
v 4.900000 0.164360 -1.000000
v 5.000000 0.164360 -0.900000
v 4.900000 2.064360 -0.900000
v 5.000000 1.964360 -0.900000
v 4.900000 1.964360 -1.000000
v 5.100000 0.064360 0.900000
v 5.100000 0.164360 1.000000
v 5.000000 0.164360 0.900000
v 5.100000 1.964360 1.000000
v 5.100000 2.064360 0.900000
v 5.000000 1.964360 0.900000
v 5.100000 0.064360 -0.900000
v 5.000000 0.164360 -0.900000
v 5.100000 0.164360 -1.000000
v 5.100000 2.064360 -0.900000
v 5.100000 1.964360 -1.000000
v 5.000000 1.964360 -0.900000
v 6.900000 0.064360 0.900000
v 7.000000 0.164360 0.900000
v 6.900000 0.164360 1.000000
v 6.900000 2.064360 0.900000
v 6.900000 1.964360 1.000000
v 7.000000 1.964360 0.900000
v 6.900000 0.064360 -0.900000
v 6.900000 0.164360 -1.000000
v 7.000000 0.164360 -0.900000
v 6.900000 2.064360 -0.900000
v 7.000000 1.964360 -0.900000
v 6.900000 1.964360 -1.000000
vt 0.076243 1.978629
vt 0.923757 1.978629
vt 0.923757 2.826143
vt 0.076243 2.826144
vt 0.076243 1.036946
vt 0.923757 1.036946
vt 0.923757 1.884460
vt 0.076243 1.884460
vt -0.865440 1.036946
vt -0.017926 1.036946
vt -0.017926 1.884460
vt -0.865440 1.884460
vt 1.017926 1.036946
vt 1.865440 1.036946
vt 1.865440 1.884460
vt 1.017926 1.884460
vt 0.076243 -0.846419
vt 0.923757 -0.846419
vt 0.923757 0.001095
vt 0.076243 0.001095
vt 0.076243 0.095263
vt 0.923757 0.095263
vt 0.923757 0.942778
vt 0.076243 0.942778
vt 0.076243 1.978629
vt 0.923757 1.978629
vt 0.923757 2.826143
vt 0.076243 2.826144
vt 0.076243 1.036946
vt 0.923757 1.036946
vt 0.923757 1.884460
vt 0.076243 1.884460
vt -0.865440 1.036946
vt -0.017926 1.036946
vt -0.017926 1.884460
vt -0.865440 1.884461
vt 1.017926 1.036946
vt 1.865440 1.036946
vt 1.865440 1.884460
vt 1.017926 1.884461
vt 0.076243 -0.846419
vt 0.923757 -0.846419
vt 0.923757 0.001095
vt 0.076243 0.001095
vt 0.076243 0.095263
vt 0.923757 0.095263
vt 0.923757 0.942778
vt 0.076243 0.942778
vt 0.076243 1.978629
vt 0.923757 1.978629
vt 0.923757 2.826143
vt 0.076243 2.826143
vt 0.076243 1.036946
vt 0.923757 1.036946
vt 0.923757 1.884460
vt 0.076243 1.884460
vt -0.865440 1.036946
vt -0.017926 1.036946
vt -0.017926 1.884460
vt -0.865440 1.884461
vt 1.017926 1.036946
vt 1.865440 1.036946
vt 1.865440 1.884460
vt 1.017926 1.884461
vt 0.076243 -0.846419
vt 0.923757 -0.846419
vt 0.923757 0.001095
vt 0.076243 0.001095
vt 0.076243 0.095263
vt 0.923757 0.095263
vt 0.923757 0.942778
vt 0.076243 0.942778
vt 0.076243 1.978629
vt 0.923757 1.978629
vt 0.923757 2.826143
vt 0.076243 2.826143
vt 0.076243 1.036946
vt 0.923757 1.036946
vt 0.923757 1.884460
vt 0.076243 1.884460
vt 1.017926 1.036946
vt 1.865440 1.036946
vt 1.865440 1.884460
vt 1.017926 1.884461
vt 0.076243 -0.846419
vt 0.923757 -0.846419
vt 0.923757 0.001095
vt 0.076243 0.001095
vt 0.076243 0.095263
vt 0.923757 0.095263
vt 0.923757 0.942778
vt 0.076243 0.942778
vt -0.865440 1.884460
vt -0.865440 1.931545
vt -0.912524 1.884461
vt 0.970841 2.826143
vt 0.923757 2.873228
vt -0.865440 1.036946
vt -0.912524 1.036946
vt -0.865440 0.989862
vt 1.865440 0.989862
vt 1.912524 1.036946
vt -0.017926 1.884460
vt 0.029159 1.884461
vt -0.017926 1.931545
vt 1.017926 1.931545
vt 0.970841 1.884461
vt -0.017926 1.036946
vt -0.017926 0.989862
vt 0.029159 1.036946
vt 0.970841 1.036946
vt 1.017926 0.989862
vt -0.865440 1.931545
vt -0.912524 1.884461
vt 0.970841 2.826143
vt 0.923757 2.873228
vt -0.912524 1.036946
vt -0.865440 0.989862
vt 1.865440 0.989862
vt 1.912524 1.036946
vt 0.029159 1.884461
vt -0.017926 1.931545
vt 1.017926 1.931545
vt 0.970841 1.884461
vt -0.017926 0.989862
vt 0.029159 1.036946
vt 0.970841 1.036946
vt 1.017926 0.989862
vt -0.865440 1.931545
vt -0.912524 1.884461
vt 0.970841 2.826144
vt 0.923757 2.873228
vt -0.912524 1.036946
vt -0.865440 0.989862
vt 1.865440 0.989862
vt 1.912524 1.036946
vt 0.029159 1.884461
vt -0.017926 1.931545
vt 1.017926 1.931545
vt 0.970841 1.884461
vt -0.017926 0.989862
vt 0.029159 1.036946
vt 0.970841 1.036946
vt 1.017926 0.989862
vt -0.865440 1.931545
vt -0.912524 1.884461
vt 0.970841 2.826144
vt 0.923757 2.873228
vt -0.912524 1.036946
vt -0.865440 0.989862
vt 1.865440 0.989862
vt 1.912524 1.036946
vt 0.029159 1.884461
vt -0.017926 1.931545
vt 1.017926 1.931545
vt 0.970841 1.884461
vt -0.017926 0.989862
vt 0.029159 1.036946
vt 0.970841 1.036946
vt 1.017926 0.989862
vt 0.076243 2.873228
vt 1.912524 1.884461
vt 1.865440 1.931545
vt 0.076243 2.873228
vt 1.912524 1.884461
vt 1.865440 1.931545
vt 0.076243 2.873228
vt 1.912524 1.884461
vt 1.865440 1.931545
vt 0.076243 2.873228
vt 1.912524 1.884461
vt 1.865440 1.931545
vn 0.0000 0.0000 1.0000
vn 1.0000 0.0000 0.0000
vn 0.0000 -1.0000 0.0000
vn 0.0000 1.0000 0.0000
vn -1.0000 0.0000 0.0000
vn 0.0000 0.0000 -1.0000
vn -0.5774 -0.5774 0.5774
vn -0.5774 0.5774 0.5773
vn -0.5774 -0.5774 -0.5774
vn -0.5774 0.5774 -0.5773
vn 0.5774 -0.5774 0.5774
vn 0.5774 0.5774 0.5773
vn 0.5774 -0.5774 -0.5774
vn 0.5774 0.5774 -0.5773
vn 0.5774 -0.5773 0.5774
vn 0.5774 0.5773 0.5773
vn 0.5774 -0.5773 -0.5774
vn 0.5774 0.5773 -0.5773
vn -0.5774 -0.5773 0.5774
vn -0.5774 0.5773 0.5773
vn -0.5774 -0.5773 -0.5774
vn -0.5774 0.5773 -0.5773
vn 0.5774 0.5773 0.5774
vn 0.5774 0.5773 -0.5774
vn -0.7071 -0.7071 0.0000
vn -0.7071 0.0000 0.7071
vn -0.7071 0.7071 0.0000
vn -0.7071 0.0000 -0.7071
vn 0.0000 -0.7071 -0.7071
vn 0.0000 0.7071 -0.7071
vn 0.7071 0.0000 -0.7071
vn 0.7071 -0.7071 0.0000
vn 0.7071 0.7071 0.0000
vn 0.7071 0.0000 0.7071
vn 0.0000 -0.7071 0.7071
vn 0.0000 0.7071 0.7071
usemtl Material.001
s off
f 15/1/1 17/2/1 4/3/1 2/4/1
f 21/5/2 23/6/2 18/7/2 14/8/2
f 31/9/3 43/10/3 37/11/3 25/12/3
f 22/13/4 10/14/4 5/15/4 16/16/4
f 3/17/5 6/18/5 12/19/5 8/20/5
f 9/21/6 11/22/6 24/23/6 20/24/6
f 39/25/1 41/26/1 28/27/1 26/28/1
f 45/29/2 47/30/2 42/31/2 38/32/2
f 55/33/3 67/34/3 61/35/3 49/36/3
f 46/37/4 34/38/4 29/39/4 40/40/4
f 27/41/5 30/42/5 36/43/5 32/44/5
f 33/45/6 35/46/6 48/47/6 44/48/6
f 63/49/1 65/50/1 52/51/1 50/52/1
f 69/53/2 71/54/2 66/55/2 62/56/2
f 79/57/3 91/58/3 85/59/3 73/60/3
f 70/61/4 58/62/4 53/63/4 64/64/4
f 51/65/5 54/66/5 60/67/5 56/68/5
f 57/69/6 59/70/6 72/71/6 68/72/6
f 87/73/1 89/74/1 76/75/1 74/76/1
f 93/77/2 95/78/2 90/79/2 86/80/2
f 94/81/4 82/82/4 77/83/4 88/84/4
f 75/85/5 78/86/5 84/87/5 80/88/5
f 81/89/6 83/90/6 96/91/6 92/92/6
f 1/93/7 2/94/7 3/95/7
f 4/3/8 5/96/8 6/97/8
f 7/98/9 8/99/9 9/100/9
f 10/14/10 11/101/10 12/102/10
f 13/103/11 14/104/11 15/105/11
f 16/16/12 17/106/12 18/107/12
f 19/108/13 20/109/13 21/110/13
f 22/13/14 23/111/14 24/112/14
f 25/12/7 26/113/7 27/114/7
f 28/27/8 29/115/8 30/116/8
f 31/9/9 32/117/9 33/118/9
f 34/38/10 35/119/10 36/120/10
f 37/11/15 38/121/15 39/122/15
f 40/40/16 41/123/16 42/124/16
f 43/10/17 44/125/17 45/126/17
f 46/37/18 47/127/18 48/128/18
f 49/36/19 50/129/19 51/130/19
f 52/51/20 53/131/20 54/132/20
f 55/33/21 56/133/21 57/134/21
f 58/62/22 59/135/22 60/136/22
f 61/35/15 62/137/15 63/138/15
f 64/64/23 65/139/23 66/140/23
f 67/34/17 68/141/17 69/142/17
f 70/61/24 71/143/24 72/144/24
f 73/60/19 74/145/19 75/146/19
f 76/75/20 77/147/20 78/148/20
f 79/57/21 80/149/21 81/150/21
f 82/82/22 83/151/22 84/152/22
f 85/59/15 86/153/15 87/154/15
f 88/84/16 89/155/16 90/156/16
f 91/58/17 92/157/17 93/158/17
f 94/81/18 95/159/18 96/160/18
f 7/98/25 1/93/25 3/95/25 8/99/25
f 2/4/26 4/3/26 6/97/26 3/161/26
f 5/15/27 10/14/27 12/102/27 6/162/27
f 11/22/28 9/21/28 8/20/28 12/19/28
f 19/108/29 7/98/29 9/100/29 20/109/29
f 10/14/30 22/13/30 24/112/30 11/101/30
f 23/6/31 21/5/31 20/24/31 24/23/31
f 13/103/32 19/108/32 21/5/32 14/8/32
f 22/13/33 16/16/33 18/7/33 23/6/33
f 17/2/34 15/1/34 14/8/34 18/7/34
f 1/93/35 13/103/35 15/105/35 2/94/35
f 16/16/36 5/15/36 4/163/36 17/106/36
f 31/9/25 25/12/25 27/114/25 32/117/25
f 26/28/26 28/27/26 30/116/26 27/164/26
f 29/39/27 34/38/27 36/120/27 30/165/27
f 35/46/28 33/45/28 32/44/28 36/43/28
f 43/10/29 31/9/29 33/118/29 44/125/29
f 34/38/30 46/37/30 48/128/30 35/119/30
f 47/30/31 45/29/31 44/48/31 48/47/31
f 37/11/32 43/10/32 45/29/32 38/32/32
f 46/37/33 40/40/33 42/31/33 47/30/33
f 41/26/34 39/25/34 38/32/34 42/31/34
f 25/12/35 37/11/35 39/122/35 26/113/35
f 40/40/36 29/39/36 28/166/36 41/123/36
f 55/33/25 49/36/25 51/130/25 56/133/25
f 50/52/26 52/51/26 54/132/26 51/167/26
f 53/63/27 58/62/27 60/136/27 54/168/27
f 59/70/28 57/69/28 56/68/28 60/67/28
f 67/34/29 55/33/29 57/134/29 68/141/29
f 58/62/30 70/61/30 72/144/30 59/135/30
f 71/54/31 69/53/31 68/72/31 72/71/31
f 61/35/32 67/34/32 69/53/32 62/56/32
f 70/61/33 64/64/33 66/55/33 71/54/33
f 65/50/34 63/49/34 62/56/34 66/55/34
f 49/36/35 61/35/35 63/138/35 50/129/35
f 64/64/36 53/63/36 52/169/36 65/139/36
f 79/57/25 73/60/25 75/146/25 80/149/25
f 74/76/26 76/75/26 78/148/26 75/170/26
f 77/83/27 82/82/27 84/152/27 78/171/27
f 83/90/28 81/89/28 80/88/28 84/87/28
f 91/58/29 79/57/29 81/150/29 92/157/29
f 82/82/30 94/81/30 96/160/30 83/151/30
f 95/78/31 93/77/31 92/92/31 96/91/31
f 85/59/32 91/58/32 93/77/32 86/80/32
f 94/81/33 88/84/33 90/79/33 95/78/33
f 89/74/34 87/73/34 86/80/34 90/79/34
f 73/60/35 85/59/35 87/154/35 74/145/35
f 88/84/36 77/83/36 76/172/36 89/155/36
f 7/98/3 19/108/3 13/103/3 1/93/3
o Cube.001_Cube.002
v 1.000000 2.164360 0.900000
v 0.900000 2.164360 1.000000
v 0.900000 2.064360 0.900000
v -0.900000 2.164360 1.000000
v -1.000000 2.164360 0.900000
v -0.900000 2.064360 0.900000
v 1.000000 2.164360 -0.900000
v 0.900000 2.064360 -0.900000
v 0.900000 2.164360 -1.000000
v -1.000000 2.164360 -0.900000
v -0.900000 2.164360 -1.000000
v -0.900000 2.064360 -0.900000
v 1.000000 3.964360 0.900000
v 0.900000 4.064360 0.900000
v 0.900000 3.964360 1.000000
v -1.000000 3.964360 0.900000
v -0.900000 3.964360 1.000000
v -0.900000 4.064360 0.900000
v 1.000000 3.964360 -0.900000
v 0.900000 3.964360 -1.000000
v 0.900000 4.064360 -0.900000
v -1.000000 3.964360 -0.900000
v -0.900000 4.064360 -0.900000
v -0.900000 3.964360 -1.000000
v 1.000000 4.164360 0.900000
v 0.900000 4.164360 1.000000
v 0.900000 4.064360 0.900000
v -0.900000 4.164360 1.000000
v -1.000000 4.164360 0.900000
v -0.900000 4.064360 0.900000
v 1.000000 4.164360 -0.900000
v 0.900000 4.064360 -0.900000
v 0.900000 4.164360 -1.000000
v -1.000000 4.164360 -0.900000
v -0.900000 4.164360 -1.000000
v -0.900000 4.064360 -0.900000
v 1.000000 5.964360 0.900000
v 0.900000 6.064360 0.900000
v 0.900000 5.964360 1.000000
v -1.000000 5.964360 0.900000
v -0.900000 5.964360 1.000000
v -0.900000 6.064360 0.900000
v 1.000000 5.964360 -0.900000
v 0.900000 5.964360 -1.000000
v 0.900000 6.064360 -0.900000
v -1.000000 5.964360 -0.900000
v -0.900000 6.064360 -0.900000
v -0.900000 5.964360 -1.000000
v 1.000000 6.164360 0.900000
v 0.900000 6.164360 1.000000
v 0.900000 6.064360 0.900000
v -0.900000 6.164360 1.000000
v -1.000000 6.164360 0.900000
v -0.900000 6.064360 0.900000
v 1.000000 6.164360 -0.900000
v 0.900000 6.064360 -0.900000
v 0.900000 6.164360 -1.000000
v -1.000000 6.164360 -0.900000
v -0.900000 6.164360 -1.000000
v -0.900000 6.064360 -0.900000
v 1.000000 7.964360 0.900000
v 0.900000 8.064360 0.900000
v 0.900000 7.964360 1.000000
v -1.000000 7.964360 0.900000
v -0.900000 7.964360 1.000000
v -0.900000 8.064360 0.900000
v 1.000000 7.964360 -0.900000
v 0.900000 7.964360 -1.000000
v 0.900000 8.064360 -0.900000
v -1.000000 7.964360 -0.900000
v -0.900000 8.064360 -0.900000
v -0.900000 7.964360 -1.000000
v 1.000000 8.164360 0.900000
v 0.900000 8.164360 1.000000
v 0.900000 8.064360 0.900000
v -0.900000 8.164360 1.000000
v -1.000000 8.164360 0.900000
v -0.900000 8.064360 0.900000
v 1.000000 8.164360 -0.900000
v 0.900000 8.064360 -0.900000
v 0.900000 8.164360 -1.000000
v -1.000000 8.164360 -0.900000
v -0.900000 8.164360 -1.000000
v -0.900000 8.064360 -0.900000
v 1.000000 9.964359 0.900000
v 0.900001 10.064360 0.900000
v 0.900001 9.964359 1.000000
v -0.999999 9.964359 0.900000
v -0.899999 9.964359 1.000000
v -0.899999 10.064360 0.900000
v 1.000000 9.964359 -0.900000
v 0.900001 9.964359 -1.000000
v 0.900001 10.064360 -0.900000
v -0.999999 9.964359 -0.900000
v -0.899999 10.064360 -0.900000
v -0.899999 9.964359 -1.000000
vt 0.076243 1.978629
vt 0.923757 1.978629
vt 0.923757 2.826143
vt 0.076243 2.826144
vt 0.076243 1.036946
vt 0.923757 1.036946
vt 0.923757 1.884460
vt 0.076243 1.884460
vt -0.865440 1.036946
vt -0.017926 1.036946
vt -0.017926 1.884460
vt -0.865440 1.884460
vt 1.017926 1.036946
vt 1.865440 1.036946
vt 1.865440 1.884460
vt 1.017926 1.884460
vt 0.076243 -0.846419
vt 0.923757 -0.846419
vt 0.923757 0.001095
vt 0.076243 0.001095
vt 0.076243 0.095263
vt 0.923757 0.095263
vt 0.923757 0.942778
vt 0.076243 0.942778
vt 0.076243 1.978629
vt 0.923757 1.978629
vt 0.923757 2.826143
vt 0.076243 2.826144
vt 0.076243 1.036946
vt 0.923757 1.036946
vt 0.923757 1.884460
vt 0.076243 1.884460
vt -0.865440 1.036946
vt -0.017926 1.036946
vt -0.017926 1.884460
vt -0.865440 1.884461
vt 1.017926 1.036946
vt 1.865440 1.036946
vt 1.865440 1.884460
vt 1.017926 1.884461
vt 0.076243 -0.846419
vt 0.923757 -0.846419
vt 0.923757 0.001095
vt 0.076243 0.001095
vt 0.076243 0.095263
vt 0.923757 0.095263
vt 0.923757 0.942778
vt 0.076243 0.942778
vt 0.076243 1.978629
vt 0.923757 1.978629
vt 0.923757 2.826143
vt 0.076243 2.826143
vt 0.076243 1.036946
vt 0.923757 1.036946
vt 0.923757 1.884460
vt 0.076243 1.884460
vt -0.865440 1.036946
vt -0.017926 1.036946
vt -0.017926 1.884460
vt -0.865440 1.884461
vt 1.017926 1.036946
vt 1.865440 1.036946
vt 1.865440 1.884460
vt 1.017926 1.884461
vt 0.076243 -0.846419
vt 0.923757 -0.846419
vt 0.923757 0.001095
vt 0.076243 0.001095
vt 0.076243 0.095263
vt 0.923757 0.095263
vt 0.923757 0.942778
vt 0.076243 0.942778
vt 0.076243 1.978629
vt 0.923757 1.978629
vt 0.923757 2.826143
vt 0.076243 2.826143
vt 0.076243 1.036946
vt 0.923757 1.036946
vt 0.923757 1.884460
vt 0.076243 1.884460
vt 1.017926 1.036946
vt 1.865440 1.036946
vt 1.865440 1.884460
vt 1.017926 1.884461
vt 0.076243 -0.846419
vt 0.923757 -0.846419
vt 0.923757 0.001095
vt 0.076243 0.001095
vt 0.076243 0.095263
vt 0.923757 0.095263
vt 0.923757 0.942778
vt 0.076243 0.942778
vt -0.865440 1.884460
vt -0.865440 1.931545
vt -0.912524 1.884461
vt 0.970841 2.826143
vt 0.923757 2.873228
vt -0.865440 1.036946
vt -0.912524 1.036946
vt -0.865440 0.989862
vt 1.865440 0.989862
vt 1.912524 1.036946
vt -0.017926 1.884460
vt 0.029159 1.884461
vt -0.017926 1.931545
vt 1.017926 1.931545
vt 0.970841 1.884461
vt -0.017926 1.036946
vt -0.017926 0.989862
vt 0.029159 1.036946
vt 0.970841 1.036946
vt 1.017926 0.989862
vt -0.865440 1.931545
vt -0.912524 1.884461
vt 0.970841 2.826143
vt 0.923757 2.873228
vt -0.912524 1.036946
vt -0.865440 0.989862
vt 1.865440 0.989862
vt 1.912524 1.036946
vt 0.029159 1.884461
vt -0.017926 1.931545
vt 1.017926 1.931545
vt 0.970841 1.884461
vt -0.017926 0.989862
vt 0.029159 1.036946
vt 0.970841 1.036946
vt 1.017926 0.989862
vt -0.865440 1.931545
vt -0.912524 1.884461
vt 0.970841 2.826144
vt 0.923757 2.873228
vt -0.912524 1.036946
vt -0.865440 0.989862
vt 1.865440 0.989862
vt 1.912524 1.036946
vt 0.029159 1.884461
vt -0.017926 1.931545
vt 1.017926 1.931545
vt 0.970841 1.884461
vt -0.017926 0.989862
vt 0.029159 1.036946
vt 0.970841 1.036946
vt 1.017926 0.989862
vt -0.865440 1.931545
vt -0.912524 1.884461
vt 0.970841 2.826144
vt 0.923757 2.873228
vt -0.912524 1.036946
vt -0.865440 0.989862
vt 1.865440 0.989862
vt 1.912524 1.036946
vt 0.029159 1.884461
vt -0.017926 1.931545
vt 1.017926 1.931545
vt 0.970841 1.884461
vt -0.017926 0.989862
vt 0.029159 1.036946
vt 0.970841 1.036946
vt 1.017926 0.989862
vt 0.076243 2.873228
vt 1.912524 1.884461
vt 1.865440 1.931545
vt 0.076243 2.873228
vt 1.912524 1.884461
vt 1.865440 1.931545
vt 0.076243 2.873228
vt 1.912524 1.884461
vt 1.865440 1.931545
vt 0.076243 2.873228
vt 1.912524 1.884461
vt 1.865440 1.931545
vn 0.0000 0.0000 1.0000
vn 0.0000 1.0000 0.0000
vn 1.0000 -0.0000 0.0000
vn -1.0000 0.0000 0.0000
vn 0.0000 -1.0000 0.0000
vn 0.0000 0.0000 -1.0000
vn 0.5773 -0.5774 0.5773
vn -0.5774 -0.5774 0.5773
vn 0.5773 -0.5774 -0.5773
vn -0.5774 -0.5774 -0.5773
vn 0.5774 0.5774 0.5773
vn -0.5774 0.5774 0.5773
vn 0.5774 0.5774 -0.5773
vn -0.5774 0.5774 -0.5773
vn -0.5774 -0.5773 0.5774
vn -0.5774 -0.5773 -0.5774
vn -0.5773 -0.5774 0.5773
vn -0.5773 -0.5774 -0.5773
vn 0.5774 -0.5773 0.5773
vn -0.5774 -0.5773 0.5773
vn 0.5774 -0.5773 -0.5773
vn -0.5774 -0.5773 -0.5773
vn 0.5774 0.5773 0.5774
vn -0.5774 0.5773 0.5774
vn 0.5774 0.5773 -0.5774
vn -0.5774 0.5773 -0.5774
vn 0.7071 -0.7071 0.0000
vn -0.0000 -0.7071 0.7071
vn -0.7071 -0.7071 0.0000
vn -0.0000 -0.7071 -0.7071
vn 0.7071 -0.0000 -0.7071
vn -0.7071 0.0000 -0.7071
vn 0.0000 0.7071 -0.7071
vn 0.7071 0.7071 0.0000
vn -0.7071 0.7071 0.0000
vn 0.0000 0.7071 0.7071
vn 0.7071 -0.0000 0.7071
vn -0.7071 0.0000 0.7071
usemtl Material.002
s off
f 111/173/37 113/174/37 100/175/37 98/176/37
f 117/177/38 119/178/38 114/179/38 110/180/38
f 127/181/39 139/182/39 133/183/39 121/184/39
f 118/185/40 106/186/40 101/187/40 112/188/40
f 99/189/41 102/190/41 108/191/41 104/192/41
f 105/193/42 107/194/42 120/195/42 116/196/42
f 135/197/37 137/198/37 124/199/37 122/200/37
f 141/201/38 143/202/38 138/203/38 134/204/38
f 151/205/39 163/206/39 157/207/39 145/208/39
f 142/209/40 130/210/40 125/211/40 136/212/40
f 123/213/41 126/214/41 132/215/41 128/216/41
f 129/217/42 131/218/42 144/219/42 140/220/42
f 159/221/37 161/222/37 148/223/37 146/224/37
f 165/225/38 167/226/38 162/227/38 158/228/38
f 175/229/39 187/230/39 181/231/39 169/232/39
f 166/233/40 154/234/40 149/235/40 160/236/40
f 147/237/41 150/238/41 156/239/41 152/240/41
f 153/241/42 155/242/42 168/243/42 164/244/42
f 183/245/37 185/246/37 172/247/37 170/248/37
f 189/249/38 191/250/38 186/251/38 182/252/38
f 190/253/40 178/254/40 173/255/40 184/256/40
f 171/257/41 174/258/41 180/259/41 176/260/41
f 177/261/42 179/262/42 192/263/42 188/264/42
f 97/265/43 98/266/43 99/267/43
f 100/175/44 101/268/44 102/269/44
f 103/270/45 104/271/45 105/272/45
f 106/186/46 107/273/46 108/274/46
f 109/275/47 110/276/47 111/277/47
f 112/188/48 113/278/48 114/279/48
f 115/280/49 116/281/49 117/282/49
f 118/185/50 119/283/50 120/284/50
f 121/184/43 122/285/43 123/286/43
f 124/199/51 125/287/51 126/288/51
f 127/181/45 128/289/45 129/290/45
f 130/210/52 131/291/52 132/292/52
f 133/183/47 134/293/47 135/294/47
f 136/212/48 137/295/48 138/296/48
f 139/182/49 140/297/49 141/298/49
f 142/209/50 143/299/50 144/300/50
f 145/208/43 146/301/43 147/302/43
f 148/223/53 149/303/53 150/304/53
f 151/205/45 152/305/45 153/306/45
f 154/234/54 155/307/54 156/308/54
f 157/207/47 158/309/47 159/310/47
f 160/236/48 161/311/48 162/312/48
f 163/206/49 164/313/49 165/314/49
f 166/233/50 167/315/50 168/316/50
f 169/232/55 170/317/55 171/318/55
f 172/247/56 173/319/56 174/320/56
f 175/229/57 176/321/57 177/322/57
f 178/254/58 179/323/58 180/324/58
f 181/231/59 182/325/59 183/326/59
f 184/256/60 185/327/60 186/328/60
f 187/230/61 188/329/61 189/330/61
f 190/253/62 191/331/62 192/332/62
f 103/270/63 97/265/63 99/267/63 104/271/63
f 98/176/64 100/175/64 102/269/64 99/333/64
f 101/187/65 106/186/65 108/274/65 102/334/65
f 107/194/66 105/193/66 104/192/66 108/191/66
f 115/280/67 103/270/67 105/272/67 116/281/67
f 106/186/68 118/185/68 120/284/68 107/273/68
f 119/178/69 117/177/69 116/196/69 120/195/69
f 109/275/70 115/280/70 117/177/70 110/180/70
f 118/185/71 112/188/71 114/179/71 119/178/71
f 113/174/72 111/173/72 110/180/72 114/179/72
f 97/265/73 109/275/73 111/277/73 98/266/73
f 112/188/74 101/187/74 100/335/74 113/278/74
f 127/181/63 121/184/63 123/286/63 128/289/63
f 122/200/64 124/199/64 126/288/64 123/336/64
f 125/211/65 130/210/65 132/292/65 126/337/65
f 131/218/66 129/217/66 128/216/66 132/215/66
f 139/182/67 127/181/67 129/290/67 140/297/67
f 130/210/68 142/209/68 144/300/68 131/291/68
f 143/202/69 141/201/69 140/220/69 144/219/69
f 133/183/70 139/182/70 141/201/70 134/204/70
f 142/209/71 136/212/71 138/203/71 143/202/71
f 137/198/72 135/197/72 134/204/72 138/203/72
f 121/184/73 133/183/73 135/294/73 122/285/73
f 136/212/74 125/211/74 124/338/74 137/295/74
f 151/205/63 145/208/63 147/302/63 152/305/63
f 146/224/64 148/223/64 150/304/64 147/339/64
f 149/235/65 154/234/65 156/308/65 150/340/65
f 155/242/66 153/241/66 152/240/66 156/239/66
f 163/206/67 151/205/67 153/306/67 164/313/67
f 154/234/68 166/233/68 168/316/68 155/307/68
f 167/226/69 165/225/69 164/244/69 168/243/69
f 157/207/70 163/206/70 165/225/70 158/228/70
f 166/233/71 160/236/71 162/227/71 167/226/71
f 161/222/72 159/221/72 158/228/72 162/227/72
f 145/208/73 157/207/73 159/310/73 146/301/73
f 160/236/74 149/235/74 148/341/74 161/311/74
f 175/229/63 169/232/63 171/318/63 176/321/63
f 170/248/64 172/247/64 174/320/64 171/342/64
f 173/255/65 178/254/65 180/324/65 174/343/65
f 179/262/66 177/261/66 176/260/66 180/259/66
f 187/230/67 175/229/67 177/322/67 188/329/67
f 178/254/68 190/253/68 192/332/68 179/323/68
f 191/250/69 189/249/69 188/264/69 192/263/69
f 181/231/70 187/230/70 189/249/70 182/252/70
f 190/253/71 184/256/71 186/251/71 191/250/71
f 185/246/72 183/245/72 182/252/72 186/251/72
f 169/232/73 181/231/73 183/326/73 170/317/73
f 184/256/74 173/255/74 172/344/74 185/327/74
f 103/270/39 115/280/39 109/275/39 97/265/39
o Cube.002_Cube.003
v 7.000000 2.164360 0.900000
v 6.900000 2.164360 1.000000
v 6.900000 2.064360 0.900000
v 5.100000 2.164360 1.000000
v 5.000000 2.164360 0.900000
v 5.100000 2.064360 0.900000
v 7.000000 2.164360 -0.900000
v 6.900000 2.064360 -0.900000
v 6.900000 2.164360 -1.000000
v 5.000000 2.164360 -0.900000
v 5.100000 2.164360 -1.000000
v 5.100000 2.064360 -0.900000
v 7.000000 3.964360 0.900000
v 6.900000 4.064360 0.900000
v 6.900000 3.964360 1.000000
v 5.000000 3.964360 0.900000
v 5.100000 3.964360 1.000000
v 5.100000 4.064360 0.900000
v 7.000000 3.964360 -0.900000
v 6.900000 3.964360 -1.000000
v 6.900000 4.064360 -0.900000
v 5.000000 3.964360 -0.900000
v 5.100000 4.064360 -0.900000
v 5.100000 3.964360 -1.000000
v 7.000000 4.164360 0.900000
v 6.900000 4.164360 1.000000
v 6.900000 4.064360 0.900000
v 5.100000 4.164360 1.000000
v 5.000000 4.164360 0.900000
v 5.100000 4.064360 0.900000
v 7.000000 4.164360 -0.900000
v 6.900000 4.064360 -0.900000
v 6.900000 4.164360 -1.000000
v 5.000000 4.164360 -0.900000
v 5.100000 4.164360 -1.000000
v 5.100000 4.064360 -0.900000
v 7.000000 5.964360 0.900000
v 6.900000 6.064360 0.900000
v 6.900000 5.964360 1.000000
v 5.000000 5.964360 0.900000
v 5.100000 5.964360 1.000000
v 5.100000 6.064360 0.900000
v 7.000000 5.964360 -0.900000
v 6.900000 5.964360 -1.000000
v 6.900000 6.064360 -0.900000
v 5.000000 5.964360 -0.900000
v 5.100000 6.064360 -0.900000
v 5.100000 5.964360 -1.000000
v 7.000000 6.164360 0.900000
v 6.900000 6.164360 1.000000
v 6.900000 6.064360 0.900000
v 5.100000 6.164360 1.000000
v 5.000000 6.164360 0.900000
v 5.100000 6.064360 0.900000
v 7.000000 6.164360 -0.900000
v 6.900000 6.064360 -0.900000
v 6.900000 6.164360 -1.000000
v 5.000000 6.164360 -0.900000
v 5.100000 6.164360 -1.000000
v 5.100000 6.064360 -0.900000
v 7.000000 7.964360 0.900000
v 6.900001 8.064360 0.900000
v 6.900001 7.964360 1.000000
v 5.000000 7.964360 0.900000
v 5.100000 7.964360 1.000000
v 5.100000 8.064360 0.900000
v 7.000000 7.964360 -0.900000
v 6.900001 7.964360 -1.000000
v 6.900001 8.064360 -0.900000
v 5.000000 7.964360 -0.900000
v 5.100000 8.064360 -0.900000
v 5.100000 7.964360 -1.000000
v 7.000000 8.164360 0.900000
v 6.900001 8.164360 1.000000
v 6.900001 8.064360 0.900000
v 5.100000 8.164360 1.000000
v 5.000000 8.164360 0.900000
v 5.100000 8.064360 0.900000
v 7.000000 8.164360 -0.900000
v 6.900001 8.064360 -0.900000
v 6.900001 8.164360 -1.000000
v 5.000000 8.164360 -0.900000
v 5.100000 8.164360 -1.000000
v 5.100000 8.064360 -0.900000
v 7.000000 9.964359 0.900000
v 6.900001 10.064360 0.900000
v 6.900001 9.964359 1.000000
v 5.000000 9.964359 0.900000
v 5.100000 9.964359 1.000000
v 5.100000 10.064360 0.900000
v 7.000000 9.964359 -0.900000
v 6.900001 9.964359 -1.000000
v 6.900001 10.064360 -0.900000
v 5.000000 9.964359 -0.900000
v 5.100000 10.064360 -0.900000
v 5.100000 9.964359 -1.000000
vt 0.076243 1.978629
vt 0.923757 1.978629
vt 0.923757 2.826143
vt 0.076243 2.826144
vt 0.076243 1.036946
vt 0.923757 1.036946
vt 0.923757 1.884460
vt 0.076243 1.884460
vt -0.865440 1.036946
vt -0.017926 1.036946
vt -0.017926 1.884460
vt -0.865440 1.884460
vt 1.017926 1.036946
vt 1.865440 1.036946
vt 1.865440 1.884460
vt 1.017926 1.884460
vt 0.076243 -0.846419
vt 0.923757 -0.846419
vt 0.923757 0.001095
vt 0.076243 0.001095
vt 0.076243 0.095263
vt 0.923757 0.095263
vt 0.923757 0.942778
vt 0.076243 0.942778
vt 0.076243 1.978629
vt 0.923757 1.978629
vt 0.923757 2.826143
vt 0.076243 2.826144
vt 0.076243 1.036946
vt 0.923757 1.036946
vt 0.923757 1.884460
vt 0.076243 1.884460
vt -0.865440 1.036946
vt -0.017926 1.036946
vt -0.017926 1.884460
vt -0.865440 1.884461
vt 1.017926 1.036946
vt 1.865440 1.036946
vt 1.865440 1.884460
vt 1.017926 1.884461
vt 0.076243 -0.846419
vt 0.923757 -0.846419
vt 0.923757 0.001095
vt 0.076243 0.001095
vt 0.076243 0.095263
vt 0.923757 0.095263
vt 0.923757 0.942778
vt 0.076243 0.942778
vt 0.076243 1.978629
vt 0.923757 1.978629
vt 0.923757 2.826143
vt 0.076243 2.826143
vt 0.076243 1.036946
vt 0.923757 1.036946
vt 0.923757 1.884460
vt 0.076243 1.884460
vt -0.865440 1.036946
vt -0.017926 1.036946
vt -0.017926 1.884460
vt -0.865440 1.884461
vt 1.017926 1.036946
vt 1.865440 1.036946
vt 1.865440 1.884460
vt 1.017926 1.884461
vt 0.076243 -0.846419
vt 0.923757 -0.846419
vt 0.923757 0.001095
vt 0.076243 0.001095
vt 0.076243 0.095263
vt 0.923757 0.095263
vt 0.923757 0.942778
vt 0.076243 0.942778
vt 0.076243 1.978629
vt 0.923757 1.978629
vt 0.923757 2.826143
vt 0.076243 2.826143
vt 0.076243 1.036946
vt 0.923757 1.036946
vt 0.923757 1.884460
vt 0.076243 1.884460
vt 1.017926 1.036946
vt 1.865440 1.036946
vt 1.865440 1.884460
vt 1.017926 1.884461
vt 0.076243 -0.846419
vt 0.923757 -0.846419
vt 0.923757 0.001095
vt 0.076243 0.001095
vt 0.076243 0.095263
vt 0.923757 0.095263
vt 0.923757 0.942778
vt 0.076243 0.942778
vt -0.865440 1.884460
vt -0.865440 1.931545
vt -0.912524 1.884461
vt 0.970841 2.826143
vt 0.923757 2.873228
vt -0.865440 1.036946
vt -0.912524 1.036946
vt -0.865440 0.989862
vt 1.865440 0.989862
vt 1.912524 1.036946
vt -0.017926 1.884460
vt 0.029159 1.884461
vt -0.017926 1.931545
vt 1.017926 1.931545
vt 0.970841 1.884461
vt -0.017926 1.036946
vt -0.017926 0.989862
vt 0.029159 1.036946
vt 0.970841 1.036946
vt 1.017926 0.989862
vt -0.865440 1.931545
vt -0.912524 1.884461
vt 0.970841 2.826143
vt 0.923757 2.873228
vt -0.912524 1.036946
vt -0.865440 0.989862
vt 1.865440 0.989862
vt 1.912524 1.036946
vt 0.029159 1.884461
vt -0.017926 1.931545
vt 1.017926 1.931545
vt 0.970841 1.884461
vt -0.017926 0.989862
vt 0.029159 1.036946
vt 0.970841 1.036946
vt 1.017926 0.989862
vt -0.865440 1.931545
vt -0.912524 1.884461
vt 0.970841 2.826144
vt 0.923757 2.873228
vt -0.912524 1.036946
vt -0.865440 0.989862
vt 1.865440 0.989862
vt 1.912524 1.036946
vt 0.029159 1.884461
vt -0.017926 1.931545
vt 1.017926 1.931545
vt 0.970841 1.884461
vt -0.017926 0.989862
vt 0.029159 1.036946
vt 0.970841 1.036946
vt 1.017926 0.989862
vt -0.865440 1.931545
vt -0.912524 1.884461
vt 0.970841 2.826144
vt 0.923757 2.873228
vt -0.912524 1.036946
vt -0.865440 0.989862
vt 1.865440 0.989862
vt 1.912524 1.036946
vt 0.029159 1.884461
vt -0.017926 1.931545
vt 1.017926 1.931545
vt 0.970841 1.884461
vt -0.017926 0.989862
vt 0.029159 1.036946
vt 0.970841 1.036946
vt 1.017926 0.989862
vt 0.076243 2.873228
vt 1.912524 1.884461
vt 1.865440 1.931545
vt 0.076243 2.873228
vt 1.912524 1.884461
vt 1.865440 1.931545
vt 0.076243 2.873228
vt 1.912524 1.884461
vt 1.865440 1.931545
vt 0.076243 2.873228
vt 1.912524 1.884461
vt 1.865440 1.931545
vn 0.0000 0.0000 1.0000
vn 0.0000 1.0000 0.0000
vn 1.0000 0.0000 0.0000
vn -1.0000 0.0000 0.0000
vn 0.0000 -1.0000 0.0000
vn 0.0000 0.0000 -1.0000
vn 0.5774 -0.5774 0.5773
vn -0.5774 -0.5773 0.5773
vn 0.5774 -0.5774 -0.5773
vn -0.5774 -0.5773 -0.5773
vn 0.5774 0.5774 0.5773
vn -0.5774 0.5774 0.5773
vn 0.5774 0.5774 -0.5773
vn -0.5774 0.5774 -0.5773
vn -0.5773 0.5774 0.5773
vn -0.5773 0.5774 -0.5773
vn -0.5773 -0.5774 0.5773
vn -0.5773 -0.5774 -0.5773
vn 0.5774 -0.5773 0.5773
vn -0.5774 -0.5774 0.5773
vn 0.5774 -0.5773 -0.5773
vn -0.5774 -0.5774 -0.5773
vn 0.5774 0.5773 0.5774
vn -0.5773 0.5774 0.5774
vn 0.5774 0.5773 -0.5774
vn -0.5773 0.5774 -0.5774
vn 0.7071 -0.7071 0.0000
vn -0.0000 -0.7071 0.7071
vn -0.7071 -0.7071 0.0000
vn -0.0000 -0.7071 -0.7071
vn 0.7071 0.0000 -0.7071
vn -0.7071 0.0000 -0.7071
vn 0.0000 0.7071 -0.7071
vn 0.7071 0.7071 0.0000
vn -0.7071 0.7071 0.0000
vn 0.0000 0.7071 0.7071
vn 0.7071 0.0000 0.7071
vn -0.7071 0.0000 0.7071
usemtl Material.003
s off
f 207/345/75 209/346/75 196/347/75 194/348/75
f 213/349/76 215/350/76 210/351/76 206/352/76
f 223/353/77 235/354/77 229/355/77 217/356/77
f 214/357/78 202/358/78 197/359/78 208/360/78
f 195/361/79 198/362/79 204/363/79 200/364/79
f 201/365/80 203/366/80 216/367/80 212/368/80
f 231/369/75 233/370/75 220/371/75 218/372/75
f 237/373/76 239/374/76 234/375/76 230/376/76
f 247/377/77 259/378/77 253/379/77 241/380/77
f 238/381/78 226/382/78 221/383/78 232/384/78
f 219/385/79 222/386/79 228/387/79 224/388/79
f 225/389/80 227/390/80 240/391/80 236/392/80
f 255/393/75 257/394/75 244/395/75 242/396/75
f 261/397/76 263/398/76 258/399/76 254/400/76
f 271/401/77 283/402/77 277/403/77 265/404/77
f 262/405/78 250/406/78 245/407/78 256/408/78
f 243/409/79 246/410/79 252/411/79 248/412/79
f 249/413/80 251/414/80 264/415/80 260/416/80
f 279/417/75 281/418/75 268/419/75 266/420/75
f 285/421/76 287/422/76 282/423/76 278/424/76
f 286/425/78 274/426/78 269/427/78 280/428/78
f 267/429/79 270/430/79 276/431/79 272/432/79
f 273/433/80 275/434/80 288/435/80 284/436/80
f 193/437/81 194/438/81 195/439/81
f 196/347/82 197/440/82 198/441/82
f 199/442/83 200/443/83 201/444/83
f 202/358/84 203/445/84 204/446/84
f 205/447/85 206/448/85 207/449/85
f 208/360/86 209/450/86 210/451/86
f 211/452/87 212/453/87 213/454/87
f 214/357/88 215/455/88 216/456/88
f 217/356/81 218/457/81 219/458/81
f 220/371/82 221/459/82 222/460/82
f 223/353/83 224/461/83 225/462/83
f 226/382/84 227/463/84 228/464/84
f 229/355/85 230/465/85 231/466/85
f 232/384/89 233/467/89 234/468/89
f 235/354/87 236/469/87 237/470/87
f 238/381/90 239/471/90 240/472/90
f 241/380/81 242/473/81 243/474/81
f 244/395/91 245/475/91 246/476/91
f 247/377/83 248/477/83 249/478/83
f 250/406/92 251/479/92 252/480/92
f 253/379/85 254/481/85 255/482/85
f 256/408/86 257/483/86 258/484/86
f 259/378/87 260/485/87 261/486/87
f 262/405/88 263/487/88 264/488/88
f 265/404/93 266/489/93 267/490/93
f 268/419/94 269/491/94 270/492/94
f 271/401/95 272/493/95 273/494/95
f 274/426/96 275/495/96 276/496/96
f 277/403/97 278/497/97 279/498/97
f 280/428/98 281/499/98 282/500/98
f 283/402/99 284/501/99 285/502/99
f 286/425/100 287/503/100 288/504/100
f 199/442/101 193/437/101 195/439/101 200/443/101
f 194/348/102 196/347/102 198/441/102 195/505/102
f 197/359/103 202/358/103 204/446/103 198/506/103
f 203/366/104 201/365/104 200/364/104 204/363/104
f 211/452/105 199/442/105 201/444/105 212/453/105
f 202/358/106 214/357/106 216/456/106 203/445/106
f 215/350/107 213/349/107 212/368/107 216/367/107
f 205/447/108 211/452/108 213/349/108 206/352/108
f 214/357/109 208/360/109 210/351/109 215/350/109
f 209/346/110 207/345/110 206/352/110 210/351/110
f 193/437/111 205/447/111 207/449/111 194/438/111
f 208/360/112 197/359/112 196/507/112 209/450/112
f 223/353/101 217/356/101 219/458/101 224/461/101
f 218/372/102 220/371/102 222/460/102 219/508/102
f 221/383/103 226/382/103 228/464/103 222/509/103
f 227/390/104 225/389/104 224/388/104 228/387/104
f 235/354/105 223/353/105 225/462/105 236/469/105
f 226/382/106 238/381/106 240/472/106 227/463/106
f 239/374/107 237/373/107 236/392/107 240/391/107
f 229/355/108 235/354/108 237/373/108 230/376/108
f 238/381/109 232/384/109 234/375/109 239/374/109
f 233/370/110 231/369/110 230/376/110 234/375/110
f 217/356/111 229/355/111 231/466/111 218/457/111
f 232/384/112 221/383/112 220/510/112 233/467/112
f 247/377/101 241/380/101 243/474/101 248/477/101
f 242/396/102 244/395/102 246/476/102 243/511/102
f 245/407/103 250/406/103 252/480/103 246/512/103
f 251/414/104 249/413/104 248/412/104 252/411/104
f 259/378/105 247/377/105 249/478/105 260/485/105
f 250/406/106 262/405/106 264/488/106 251/479/106
f 263/398/107 261/397/107 260/416/107 264/415/107
f 253/379/108 259/378/108 261/397/108 254/400/108
f 262/405/109 256/408/109 258/399/109 263/398/109
f 257/394/110 255/393/110 254/400/110 258/399/110
f 241/380/111 253/379/111 255/482/111 242/473/111
f 256/408/112 245/407/112 244/513/112 257/483/112
f 271/401/101 265/404/101 267/490/101 272/493/101
f 266/420/102 268/419/102 270/492/102 267/514/102
f 269/427/103 274/426/103 276/496/103 270/515/103
f 275/434/104 273/433/104 272/432/104 276/431/104
f 283/402/105 271/401/105 273/494/105 284/501/105
f 274/426/106 286/425/106 288/504/106 275/495/106
f 287/422/107 285/421/107 284/436/107 288/435/107
f 277/403/108 283/402/108 285/421/108 278/424/108
f 286/425/109 280/428/109 282/423/109 287/422/109
f 281/418/110 279/417/110 278/424/110 282/423/110
f 265/404/111 277/403/111 279/498/111 266/489/111
f 280/428/112 269/427/112 268/516/112 281/499/112
f 199/442/77 211/452/77 205/447/77 193/437/77
o Cube.003_Cube.004
v -0.910000 10.064360 0.910000
v -0.910000 10.154360 1.000000
v -1.000000 10.154360 0.910000
v -0.910000 10.090720 0.973640
v -0.961962 10.102398 0.961962
v -0.973640 10.154360 0.973640
v -0.973640 10.090720 0.910000
v -0.910000 11.974360 1.000000
v -0.910000 12.064360 0.910000
v -1.000000 11.974360 0.910000
v -0.910000 12.037999 0.973640
v -0.961962 12.026321 0.961962
v -0.973640 12.037999 0.910000
v -0.973640 11.974360 0.973640
v -0.910000 10.064360 -0.910000
v -1.000000 10.154360 -0.910000
v -0.910000 10.154360 -1.000000
v -0.973640 10.090720 -0.910000
v -0.961962 10.102398 -0.961962
v -0.973640 10.154360 -0.973640
v -0.910000 10.090720 -0.973640
v -0.910000 12.064360 -0.910000
v -0.910000 11.974360 -1.000000
v -1.000000 11.974360 -0.910000
v -0.910000 12.037999 -0.973640
v -0.961962 12.026321 -0.961962
v -0.973640 11.974360 -0.973640
v -0.973640 12.037999 -0.910000
v 0.910000 10.064360 0.910000
v 1.000000 10.154360 0.910000
v 0.910000 10.154360 1.000000
v 0.973640 10.090720 0.910000
v 0.961962 10.102398 0.961962
v 0.973640 10.154360 0.973640
v 0.910000 10.090720 0.973640
v 0.910000 12.064360 0.910000
v 0.910000 11.974360 1.000000
v 1.000000 11.974360 0.910000
v 0.910000 12.037999 0.973640
v 0.961962 12.026321 0.961962
v 0.973640 11.974360 0.973640
v 0.973640 12.037999 0.910000
v 0.910000 10.064360 -0.910000
v 0.910000 10.154360 -1.000000
v 1.000000 10.154360 -0.910000
v 0.910000 10.090720 -0.973640
v 0.961962 10.102398 -0.961962
v 0.973640 10.154360 -0.973640
v 0.973640 10.090720 -0.910000
v 0.910000 12.064360 -0.910000
v 1.000000 11.974360 -0.910000
v 0.910000 11.974360 -1.000000
v 0.973640 12.037999 -0.910000
v 0.961962 12.026321 -0.961962
v 0.973640 11.974360 -0.973640
v 0.910000 12.037999 -0.973640
v 1.090000 10.064360 0.910000
v 1.090000 10.154360 1.000000
v 1.000000 10.154360 0.910000
v 1.090000 10.090720 0.973640
v 1.038038 10.102398 0.961962
v 1.026360 10.154360 0.973640
v 1.026360 10.090720 0.910000
v 1.090000 11.974360 1.000000
v 1.090000 12.064360 0.910000
v 1.000000 11.974360 0.910000
v 1.090000 12.037999 0.973640
v 1.038038 12.026321 0.961962
v 1.026360 12.037999 0.910000
v 1.026360 11.974360 0.973640
v 1.090000 10.064360 -0.910000
v 1.000000 10.154360 -0.910000
v 1.090000 10.154360 -1.000000
v 1.026361 10.090720 -0.910000
v 1.038039 10.102398 -0.961962
v 1.026361 10.154360 -0.973640
v 1.090000 10.090720 -0.973640
v 1.090000 12.064360 -0.910000
v 1.090000 11.974360 -1.000000
v 1.000000 11.974360 -0.910000
v 1.090000 12.037999 -0.973640
v 1.038038 12.026321 -0.961962
v 1.026360 11.974360 -0.973640
v 1.026360 12.037999 -0.910000
v 2.910000 10.064360 0.910000
v 3.000000 10.154360 0.910000
v 2.910000 10.154360 1.000000
v 2.973639 10.090720 0.910000
v 2.961961 10.102398 0.961962
v 2.973639 10.154360 0.973640
v 2.910000 10.090720 0.973640
v 2.910000 12.064360 0.910000
v 2.910000 11.974360 1.000000
v 3.000000 11.974360 0.910000
v 2.910000 12.037999 0.973640
v 2.961961 12.026321 0.961962
v 2.973639 11.974360 0.973640
v 2.973639 12.037999 0.910000
v 2.910000 10.064360 -0.910000
v 2.910000 10.154360 -1.000000
v 3.000000 10.154360 -0.910000
v 2.910000 10.090720 -0.973640
v 2.961961 10.102398 -0.961962
v 2.973639 10.154360 -0.973640
v 2.973639 10.090720 -0.910000
v 2.910000 12.064360 -0.910000
v 3.000000 11.974360 -0.910000
v 2.910000 11.974360 -1.000000
v 2.973639 12.037999 -0.910000
v 2.961961 12.026321 -0.961962
v 2.973639 11.974360 -0.973640
v 2.910000 12.037999 -0.973640
v 3.090000 10.064360 0.910000
v 3.090000 10.154360 1.000000
v 3.000000 10.154360 0.910000
v 3.090000 10.090720 0.973640
v 3.038039 10.102398 0.961962
v 3.026361 10.154360 0.973640
v 3.026361 10.090720 0.910000
v 3.090000 11.974360 1.000000
v 3.090000 12.064360 0.910000
v 3.000000 11.974360 0.910000
v 3.090000 12.037999 0.973640
v 3.038039 12.026321 0.961962
v 3.026361 12.037999 0.910000
v 3.026361 11.974360 0.973640
v 3.090000 10.064360 -0.910000
v 3.000000 10.154360 -0.910000
v 3.090000 10.154360 -1.000000
v 3.026361 10.090720 -0.910000
v 3.038039 10.102398 -0.961962
v 3.026361 10.154360 -0.973640
v 3.090000 10.090720 -0.973640
v 3.090000 12.064360 -0.910000
v 3.090000 11.974360 -1.000000
v 3.000000 11.974360 -0.910000
v 3.090000 12.037999 -0.973640
v 3.038039 12.026321 -0.961962
v 3.026361 11.974360 -0.973640
v 3.026361 12.037999 -0.910000
v 4.910000 10.064360 0.910000
v 5.000000 10.154360 0.910000
v 4.910000 10.154360 1.000000
v 4.973639 10.090720 0.910000
v 4.961961 10.102398 0.961962
v 4.973639 10.154360 0.973640
v 4.910000 10.090720 0.973640
v 4.910000 12.064360 0.910000
v 4.910000 11.974360 1.000000
v 5.000000 11.974360 0.910000
v 4.910000 12.037999 0.973640
v 4.961961 12.026321 0.961962
v 4.973639 11.974360 0.973640
v 4.973639 12.037999 0.910000
v 4.910000 10.064360 -0.910000
v 4.910000 10.154360 -1.000000
v 5.000000 10.154360 -0.910000
v 4.910000 10.090720 -0.973640
v 4.961961 10.102398 -0.961962
v 4.973639 10.154360 -0.973640
v 4.973639 10.090720 -0.910000
v 4.910000 12.064360 -0.910000
v 5.000000 11.974360 -0.910000
v 4.910000 11.974360 -1.000000
v 4.973639 12.037999 -0.910000
v 4.961961 12.026321 -0.961962
v 4.973639 11.974360 -0.973640
v 4.910000 12.037999 -0.973640
v 5.090000 10.064360 0.910000
v 5.090000 10.154360 1.000000
v 5.000000 10.154360 0.910000
v 5.090000 10.090720 0.973640
v 5.038039 10.102398 0.961962
v 5.026361 10.154360 0.973640
v 5.026361 10.090720 0.910000
v 5.090000 11.974360 1.000000
v 5.090000 12.064360 0.910000
v 5.000000 11.974360 0.910000
v 5.090000 12.037999 0.973640
v 5.038039 12.026321 0.961962
v 5.026361 12.037999 0.910000
v 5.026361 11.974360 0.973640
v 5.090000 10.064360 -0.910000
v 5.000000 10.154360 -0.910000
v 5.090000 10.154360 -1.000000
v 5.026361 10.090720 -0.910000
v 5.038039 10.102398 -0.961962
v 5.026361 10.154360 -0.973640
v 5.090000 10.090720 -0.973640
v 5.090000 12.064360 -0.910000
v 5.090000 11.974360 -1.000000
v 5.000000 11.974360 -0.910000
v 5.090000 12.037999 -0.973640
v 5.038039 12.026321 -0.961962
v 5.026361 11.974360 -0.973640
v 5.026361 12.037999 -0.910000
v 6.910000 10.064360 0.910000
v 7.000000 10.154360 0.910000
v 6.910000 10.154360 1.000000
v 6.973639 10.090720 0.910000
v 6.961961 10.102398 0.961962
v 6.973639 10.154360 0.973640
v 6.910000 10.090720 0.973640
v 6.910000 12.064360 0.910000
v 6.910000 11.974360 1.000000
v 7.000000 11.974360 0.910000
v 6.910000 12.037999 0.973640
v 6.961961 12.026321 0.961962
v 6.973639 11.974360 0.973640
v 6.973639 12.037999 0.910000
v 6.910000 10.064360 -0.910000
v 6.910000 10.154360 -1.000000
v 7.000000 10.154360 -0.910000
v 6.910000 10.090720 -0.973640
v 6.961961 10.102398 -0.961962
v 6.973639 10.154360 -0.973640
v 6.973639 10.090720 -0.910000
v 6.910000 12.064360 -0.910000
v 7.000000 11.974360 -0.910000
v 6.910000 11.974360 -1.000000
v 6.973639 12.037999 -0.910000
v 6.961961 12.026321 -0.961962
v 6.973639 11.974360 -0.973640
v 6.910000 12.037999 -0.973640
vt 0.071534 1.973920
vt 0.928466 1.973920
vt 0.928466 2.830852
vt 0.071534 2.830852
vt 0.071534 1.032238
vt 0.928466 1.032238
vt 0.928466 1.889169
vt 0.071534 1.889169
vt -0.870148 1.032238
vt -0.013217 1.032238
vt -0.013217 1.889169
vt -0.870148 1.889169
vt 1.013217 1.032238
vt 1.870148 1.032238
vt 1.870148 1.889169
vt 1.013217 1.889169
vt 0.071534 -0.851128
vt 0.928466 -0.851128
vt 0.928466 0.005803
vt 0.071534 0.005803
vt 0.071534 0.090555
vt 0.928466 0.090555
vt 0.928466 0.947486
vt 0.071534 0.947486
vt 0.071534 1.973921
vt 0.928466 1.973921
vt 0.928466 2.830852
vt 0.071534 2.830852
vt 0.071534 1.032238
vt 0.928466 1.032238
vt 0.928466 1.889169
vt 0.071534 1.889169
vt -0.870149 1.032238
vt -0.013217 1.032238
vt -0.013217 1.889169
vt -0.870149 1.889169
vt 1.013217 1.032238
vt 1.870148 1.032238
vt 1.870148 1.889169
vt 1.013217 1.889169
vt 0.071534 -0.851128
vt 0.928466 -0.851128
vt 0.928466 0.005803
vt 0.071534 0.005803
vt 0.071534 0.090555
vt 0.928466 0.090555
vt 0.928466 0.947486
vt 0.071534 0.947486
vt 0.071534 1.973921
vt 0.928466 1.973920
vt 0.928466 2.830852
vt 0.071534 2.830852
vt 0.071534 1.032238
vt 0.928466 1.032238
vt 0.928466 1.889169
vt 0.071534 1.889169
vt -0.870148 1.032238
vt -0.013217 1.032238
vt -0.013217 1.889169
vt -0.870148 1.889169
vt 1.013217 1.032238
vt 1.870149 1.032238
vt 1.870149 1.889169
vt 1.013217 1.889169
vt 0.071534 -0.851128
vt 0.928466 -0.851128
vt 0.928466 0.005803
vt 0.071534 0.005803
vt 0.071534 0.090555
vt 0.928466 0.090555
vt 0.928466 0.947486
vt 0.071534 0.947486
vt 0.071534 1.973921
vt 0.928466 1.973920
vt 0.928466 2.830852
vt 0.071534 2.830852
vt 0.071534 1.032238
vt 0.928466 1.032238
vt 0.928466 1.889169
vt 0.071534 1.889169
vt 1.013217 1.032238
vt 1.870149 1.032238
vt 1.870148 1.889169
vt 1.013217 1.889169
vt 0.071534 -0.851128
vt 0.928466 -0.851128
vt 0.928466 0.005803
vt 0.071534 0.005803
vt 0.071534 0.090555
vt 0.928466 0.090555
vt 0.928466 0.947486
vt 0.071534 0.947486
vt -0.870148 1.889169
vt -0.870148 1.931545
vt -0.894614 1.931545
vt -0.912524 1.889169
vt 0.071534 2.873228
vt 0.047069 2.873228
vt 0.029159 2.830852
vt 0.029159 -0.851128
vt 0.029159 -0.875594
vt 0.071534 -0.893504
vt 0.970841 2.830852
vt 0.970841 2.855317
vt 0.928466 2.873228
vt 1.912524 1.889169
vt 1.912524 1.913635
vt 1.870148 1.931545
vt 0.928466 -0.893504
vt 0.952931 -0.893504
vt 0.970841 -0.851128
vt -0.870148 1.032238
vt -0.912524 1.032238
vt -0.912524 1.007772
vt -0.870148 0.989862
vt 0.071534 0.048179
vt 0.047069 0.048179
vt 0.029159 0.005803
vt 0.029159 0.090555
vt 0.029159 0.066089
vt 1.870148 0.989862
vt 1.894614 0.989862
vt 1.912524 1.032238
vt 0.928466 0.048179
vt 0.952931 0.048179
vt 0.970841 0.090555
vt 0.970841 0.005803
vt 0.970841 0.030269
vt -0.013217 1.889169
vt 0.029159 1.889169
vt 0.035129 1.931545
vt -0.013217 1.931545
vt 0.071534 1.931545
vt 0.029159 1.973921
vt 1.013217 1.931545
vt 0.970841 1.925575
vt 0.970841 1.889169
vt 0.928466 1.931545
vt 0.970841 1.973921
vt -0.013217 1.032238
vt -0.013217 0.989862
vt 0.029159 0.995832
vt 0.029159 1.032238
vt 0.071534 0.989862
vt 0.029159 0.947486
vt 0.970841 1.032238
vt 0.964871 0.989862
vt 1.013217 0.989862
vt 0.928466 0.989862
vt 0.970841 0.947486
vt -0.870148 1.931545
vt -0.894614 1.931545
vt -0.912524 1.889169
vt 0.071534 2.873228
vt 0.047069 2.873228
vt 0.029159 2.830852
vt 0.029159 -0.851128
vt 0.029159 -0.875594
vt 0.071534 -0.893504
vt 0.970841 2.830852
vt 0.970841 2.855317
vt 0.928466 2.873228
vt 1.912524 1.889169
vt 1.912524 1.913635
vt 1.870148 1.931545
vt 0.928466 -0.893504
vt 0.952931 -0.893504
vt 0.970841 -0.851128
vt -0.912524 1.032238
vt -0.912524 1.007772
vt -0.870148 0.989862
vt 0.071534 0.048179
vt 0.047069 0.048179
vt 0.029159 0.005803
vt 0.029159 0.090555
vt 0.029159 0.066089
vt 1.870148 0.989862
vt 1.894614 0.989862
vt 1.912524 1.032238
vt 0.928466 0.048179
vt 0.952931 0.048179
vt 0.970841 0.090555
vt 0.970841 0.005803
vt 0.970841 0.030269
vt 0.029159 1.889169
vt 0.035129 1.931545
vt -0.013217 1.931545
vt 0.071534 1.931545
vt 0.029159 1.973921
vt 1.013217 1.931545
vt 0.970841 1.925575
vt 0.970841 1.889169
vt 0.928466 1.931545
vt 0.970841 1.973921
vt -0.013217 0.989862
vt 0.029159 0.995832
vt 0.029159 1.032238
vt 0.071534 0.989862
vt 0.029159 0.947486
vt 0.970841 1.032238
vt 0.964871 0.989862
vt 1.013217 0.989862
vt 0.928466 0.989862
vt 0.970841 0.947486
vt -0.870148 1.931545
vt -0.894614 1.931545
vt -0.912524 1.889169
vt 0.071534 2.873228
vt 0.047069 2.873228
vt 0.029159 2.830852
vt 0.029159 -0.851128
vt 0.029159 -0.875594
vt 0.071534 -0.893504
vt 0.970841 2.830852
vt 0.970841 2.855317
vt 0.928466 2.873228
vt 1.912524 1.889169
vt 1.912524 1.913635
vt 1.870148 1.931545
vt 0.928466 -0.893504
vt 0.952931 -0.893504
vt 0.970841 -0.851128
vt -0.912524 1.032238
vt -0.912524 1.007772
vt -0.870148 0.989862
vt 0.071534 0.048179
vt 0.047069 0.048179
vt 0.029159 0.005803
vt 0.029159 0.090555
vt 0.029159 0.066089
vt 1.870148 0.989862
vt 1.894614 0.989862
vt 1.912524 1.032238
vt 0.928466 0.048179
vt 0.952931 0.048179
vt 0.970841 0.090555
vt 0.970841 0.005803
vt 0.970841 0.030269
vt 0.029159 1.889169
vt 0.035129 1.931545
vt -0.013217 1.931545
vt 0.071534 1.931545
vt 0.029159 1.973921
vt 1.013217 1.931545
vt 0.970841 1.925575
vt 0.970841 1.889169
vt 0.928466 1.931545
vt 0.970841 1.973921
vt -0.013217 0.989862
vt 0.029159 0.995832
vt 0.029159 1.032238
vt 0.071534 0.989862
vt 0.029159 0.947486
vt 0.970841 1.032238
vt 0.964871 0.989862
vt 1.013217 0.989862
vt 0.928466 0.989862
vt 0.970841 0.947486
vt -0.870148 1.931545
vt -0.894614 1.931545
vt -0.912524 1.889169
vt 0.071534 2.873228
vt 0.047069 2.873228
vt 0.029159 2.830852
vt 0.029159 -0.851128
vt 0.029159 -0.875594
vt 0.071534 -0.893504
vt 0.970841 2.830852
vt 0.970841 2.855317
vt 0.928466 2.873228
vt 1.912524 1.889169
vt 1.912524 1.913635
vt 1.870148 1.931545
vt 0.928466 -0.893504
vt 0.952931 -0.893504
vt 0.970841 -0.851128
vt -0.912524 1.032238
vt -0.912524 1.007772
vt -0.870148 0.989862
vt 0.071534 0.048179
vt 0.047069 0.048179
vt 0.029159 0.005803
vt 0.029159 0.090555
vt 0.029159 0.066089
vt 1.870148 0.989862
vt 1.894614 0.989862
vt 1.912524 1.032238
vt 0.928466 0.048179
vt 0.952931 0.048179
vt 0.970841 0.090555
vt 0.970841 0.005803
vt 0.970841 0.030269
vt 0.029159 1.889169
vt 0.035129 1.931545
vt -0.013217 1.931545
vt 0.071534 1.931545
vt 0.029159 1.973921
vt 1.013217 1.931545
vt 0.970841 1.925575
vt 0.970841 1.889169
vt 0.928466 1.931545
vt 0.970841 1.973921
vt -0.013217 0.989862
vt 0.029159 0.995832
vt 0.029159 1.032238
vt 0.071534 0.989862
vt 0.029159 0.947486
vt 0.970841 1.032238
vt 0.964871 0.989862
vt 1.013217 0.989862
vt 0.928466 0.989862
vt 0.970841 0.947486
vn 0.0000 0.0000 1.0000
vn 1.0000 0.0000 0.0000
vn 0.0000 -1.0000 0.0000
vn 0.0000 1.0000 0.0000
vn -1.0000 0.0000 0.0000
vn 0.0000 0.0000 -1.0000
vn -0.3251 -0.8881 0.3251
vn -0.3251 -0.3251 0.8881
vn -0.8881 -0.3251 0.3251
vn -0.3251 0.3251 0.8881
vn -0.3251 0.8881 0.3251
vn -0.8881 0.3251 0.3251
vn -0.3251 -0.8881 -0.3251
vn -0.8881 -0.3251 -0.3251
vn -0.3251 -0.3251 -0.8881
vn -0.3251 0.8881 -0.3251
vn -0.3251 0.3251 -0.8881
vn -0.8881 0.3251 -0.3251
vn 0.3251 -0.8881 0.3251
vn 0.8881 -0.3251 0.3251
vn 0.3251 -0.3251 0.8881
vn 0.3251 0.8881 0.3251
vn 0.3251 0.3251 0.8881
vn 0.8881 0.3251 0.3251
vn 0.3251 -0.8881 -0.3251
vn 0.3251 -0.3251 -0.8881
vn 0.8881 -0.3251 -0.3251
vn 0.3251 0.8881 -0.3251
vn 0.8881 0.3251 -0.3251
vn 0.3251 0.3251 -0.8881
vn -0.3827 -0.9239 0.0000
vn -0.9239 -0.3827 0.0000
vn -0.3827 0.0000 0.9239
vn -0.9239 0.0000 0.3827
vn -0.3827 0.9239 0.0000
vn -0.9239 0.3827 0.0000
vn -0.3827 0.0000 -0.9239
vn -0.9239 0.0000 -0.3827
vn 0.0000 -0.9239 -0.3827
vn 0.0000 -0.3827 -0.9239
vn 0.0000 0.9239 -0.3827
vn 0.0000 0.3827 -0.9239
vn 0.9239 0.0000 -0.3827
vn 0.3827 0.0000 -0.9239
vn 0.3827 -0.9239 0.0000
vn 0.9239 -0.3827 0.0000
vn 0.3827 0.9239 0.0000
vn 0.9239 0.3827 0.0000
vn 0.3827 0.0000 0.9239
vn 0.9239 0.0000 0.3827
vn 0.0000 -0.9239 0.3827
vn 0.0000 -0.3827 0.9239
vn 0.0000 0.9239 0.3827
vn 0.0000 0.3827 0.9239
usemtl Material.004
s off
f 319/517/113 325/518/113 296/519/113 290/520/113
f 333/521/114 339/522/114 326/523/114 318/524/114
f 359/525/115 387/526/115 373/527/115 345/528/115
f 338/529/116 310/530/116 297/531/116 324/532/116
f 291/533/117 298/534/117 312/535/117 304/536/117
f 305/537/118 311/538/118 340/539/118 332/540/118
f 375/541/113 381/542/113 352/543/113 346/544/113
f 389/545/114 395/546/114 382/547/114 374/548/114
f 415/549/115 443/550/115 429/551/115 401/552/115
f 394/553/116 366/554/116 353/555/116 380/556/116
f 347/557/117 354/558/117 368/559/117 360/560/117
f 361/561/118 367/562/118 396/563/118 388/564/118
f 431/565/113 437/566/113 408/567/113 402/568/113
f 445/569/114 451/570/114 438/571/114 430/572/114
f 471/573/115 499/574/115 485/575/115 457/576/115
f 450/577/116 422/578/116 409/579/116 436/580/116
f 403/581/117 410/582/117 424/583/117 416/584/117
f 417/585/118 423/586/118 452/587/118 444/588/118
f 487/589/113 493/590/113 464/591/113 458/592/113
f 501/593/114 507/594/114 494/595/114 486/596/114
f 506/597/116 478/598/116 465/599/116 492/600/116
f 459/601/117 466/602/117 480/603/117 472/604/117
f 473/605/118 479/606/118 508/607/118 500/608/118
f 289/609/119 292/610/119 293/611/119 295/612/119
f 290/520/120 294/613/120 293/614/120 292/615/120
f 291/533/121 295/616/121 293/617/121 294/618/121
f 296/519/122 299/619/122 300/620/122 302/621/122
f 297/531/123 301/622/123 300/623/123 299/624/123
f 298/534/124 302/625/124 300/626/124 301/627/124
f 303/628/125 306/629/125 307/630/125 309/631/125
f 304/536/126 308/632/126 307/633/126 306/634/126
f 305/537/127 309/635/127 307/636/127 308/632/127
f 310/530/128 313/637/128 314/638/128 316/639/128
f 311/538/129 315/640/129 314/641/129 313/642/129
f 312/535/130 316/643/130 314/644/130 315/640/130
f 317/645/131 320/646/131 321/647/131 323/648/131
f 318/524/132 322/649/132 321/647/132 320/646/132
f 319/517/133 323/650/133 321/647/133 322/649/133
f 324/532/134 327/651/134 328/652/134 330/653/134
f 325/518/135 329/654/135 328/652/135 327/655/135
f 326/523/136 330/653/136 328/652/136 329/654/136
f 331/656/137 334/657/137 335/658/137 337/659/137
f 332/540/138 336/660/138 335/658/138 334/661/138
f 333/521/139 337/659/139 335/658/139 336/660/139
f 338/529/140 341/662/140 342/663/140 344/664/140
f 339/522/141 343/665/141 342/663/141 341/662/141
f 340/539/142 344/666/142 342/663/142 343/665/142
f 345/528/119 348/667/119 349/668/119 351/669/119
f 346/544/120 350/670/120 349/671/120 348/672/120
f 347/557/121 351/673/121 349/674/121 350/675/121
f 352/543/122 355/676/122 356/677/122 358/678/122
f 353/555/123 357/679/123 356/680/123 355/681/123
f 354/558/124 358/682/124 356/683/124 357/684/124
f 359/525/125 362/685/125 363/686/125 365/687/125
f 360/560/126 364/688/126 363/689/126 362/690/126
f 361/561/127 365/691/127 363/692/127 364/688/127
f 366/554/128 369/693/128 370/694/128 372/695/128
f 367/562/129 371/696/129 370/697/129 369/698/129
f 368/559/130 372/699/130 370/700/130 371/696/130
f 373/527/131 376/701/131 377/702/131 379/703/131
f 374/548/132 378/704/132 377/702/132 376/701/132
f 375/541/133 379/705/133 377/702/133 378/704/133
f 380/556/134 383/706/134 384/707/134 386/708/134
f 381/542/135 385/709/135 384/707/135 383/710/135
f 382/547/136 386/708/136 384/707/136 385/709/136
f 387/526/137 390/711/137 391/712/137 393/713/137
f 388/564/138 392/714/138 391/712/138 390/715/138
f 389/545/139 393/713/139 391/712/139 392/714/139
f 394/553/140 397/716/140 398/717/140 400/718/140
f 395/546/141 399/719/141 398/717/141 397/716/141
f 396/563/142 400/720/142 398/717/142 399/719/142
f 401/552/119 404/721/119 405/722/119 407/723/119
f 402/568/120 406/724/120 405/725/120 404/726/120
f 403/581/121 407/727/121 405/728/121 406/729/121
f 408/567/122 411/730/122 412/731/122 414/732/122
f 409/579/123 413/733/123 412/734/123 411/735/123
f 410/582/124 414/736/124 412/737/124 413/738/124
f 415/549/125 418/739/125 419/740/125 421/741/125
f 416/584/126 420/742/126 419/743/126 418/744/126
f 417/585/127 421/745/127 419/746/127 420/742/127
f 422/578/128 425/747/128 426/748/128 428/749/128
f 423/586/129 427/750/129 426/751/129 425/752/129
f 424/583/130 428/753/130 426/754/130 427/750/130
f 429/551/131 432/755/131 433/756/131 435/757/131
f 430/572/132 434/758/132 433/756/132 432/755/132
f 431/565/133 435/759/133 433/756/133 434/758/133
f 436/580/134 439/760/134 440/761/134 442/762/134
f 437/566/135 441/763/135 440/761/135 439/764/135
f 438/571/136 442/762/136 440/761/136 441/763/136
f 443/550/137 446/765/137 447/766/137 449/767/137
f 444/588/138 448/768/138 447/766/138 446/769/138
f 445/569/139 449/767/139 447/766/139 448/768/139
f 450/577/140 453/770/140 454/771/140 456/772/140
f 451/570/141 455/773/141 454/771/141 453/770/141
f 452/587/142 456/774/142 454/771/142 455/773/142
f 457/576/119 460/775/119 461/776/119 463/777/119
f 458/592/120 462/778/120 461/779/120 460/780/120
f 459/601/121 463/781/121 461/782/121 462/783/121
f 464/591/122 467/784/122 468/785/122 470/786/122
f 465/599/123 469/787/123 468/788/123 467/789/123
f 466/602/124 470/790/124 468/791/124 469/792/124
f 471/573/125 474/793/125 475/794/125 477/795/125
f 472/604/126 476/796/126 475/797/126 474/798/126
f 473/605/127 477/799/127 475/800/127 476/796/127
f 478/598/128 481/801/128 482/802/128 484/803/128
f 479/606/129 483/804/129 482/805/129 481/806/129
f 480/603/130 484/807/130 482/808/130 483/804/130
f 485/575/131 488/809/131 489/810/131 491/811/131
f 486/596/132 490/812/132 489/810/132 488/809/132
f 487/589/133 491/813/133 489/810/133 490/812/133
f 492/600/134 495/814/134 496/815/134 498/816/134
f 493/590/135 497/817/135 496/815/135 495/818/135
f 494/595/136 498/816/136 496/815/136 497/817/136
f 499/574/137 502/819/137 503/820/137 505/821/137
f 500/608/138 504/822/138 503/820/138 502/823/138
f 501/593/139 505/821/139 503/820/139 504/822/139
f 506/597/140 509/824/140 510/825/140 512/826/140
f 507/594/141 511/827/141 510/825/141 509/824/141
f 508/607/142 512/828/142 510/825/142 511/827/142
f 303/628/143 289/609/143 295/612/143 306/629/143
f 306/634/144 295/616/144 291/533/144 304/536/144
f 290/520/145 296/519/145 302/621/145 294/613/145
f 294/618/146 302/625/146 298/534/146 291/533/146
f 297/531/147 310/530/147 316/639/147 301/622/147
f 301/627/148 316/643/148 312/535/148 298/534/148
f 311/538/149 305/537/149 308/632/149 315/640/149
f 315/640/150 308/632/150 304/536/150 312/535/150
f 331/656/151 303/628/151 309/631/151 334/657/151
f 334/661/152 309/635/152 305/537/152 332/540/152
f 310/530/153 338/529/153 344/664/153 313/637/153
f 313/642/154 344/666/154 340/539/154 311/538/154
f 339/522/155 333/521/155 336/660/155 343/665/155
f 343/665/156 336/660/156 332/540/156 340/539/156
f 317/645/157 331/656/157 337/659/157 320/646/157
f 320/646/158 337/659/158 333/521/158 318/524/158
f 338/529/159 324/532/159 330/653/159 341/662/159
f 341/662/160 330/653/160 326/523/160 339/522/160
f 325/518/161 319/517/161 322/649/161 329/654/161
f 329/654/162 322/649/162 318/524/162 326/523/162
f 289/609/163 317/645/163 323/648/163 292/610/163
f 292/615/164 323/650/164 319/517/164 290/520/164
f 324/532/165 297/531/165 299/624/165 327/651/165
f 327/655/166 299/619/166 296/519/166 325/518/166
f 359/525/143 345/528/143 351/669/143 362/685/143
f 362/690/144 351/673/144 347/557/144 360/560/144
f 346/544/145 352/543/145 358/678/145 350/670/145
f 350/675/146 358/682/146 354/558/146 347/557/146
f 353/555/147 366/554/147 372/695/147 357/679/147
f 357/684/148 372/699/148 368/559/148 354/558/148
f 367/562/149 361/561/149 364/688/149 371/696/149
f 371/696/150 364/688/150 360/560/150 368/559/150
f 387/526/151 359/525/151 365/687/151 390/711/151
f 390/715/152 365/691/152 361/561/152 388/564/152
f 366/554/153 394/553/153 400/718/153 369/693/153
f 369/698/154 400/720/154 396/563/154 367/562/154
f 395/546/155 389/545/155 392/714/155 399/719/155
f 399/719/156 392/714/156 388/564/156 396/563/156
f 373/527/157 387/526/157 393/713/157 376/701/157
f 376/701/158 393/713/158 389/545/158 374/548/158
f 394/553/159 380/556/159 386/708/159 397/716/159
f 397/716/160 386/708/160 382/547/160 395/546/160
f 381/542/161 375/541/161 378/704/161 385/709/161
f 385/709/162 378/704/162 374/548/162 382/547/162
f 345/528/163 373/527/163 379/703/163 348/667/163
f 348/672/164 379/705/164 375/541/164 346/544/164
f 380/556/165 353/555/165 355/681/165 383/706/165
f 383/710/166 355/676/166 352/543/166 381/542/166
f 415/549/143 401/552/143 407/723/143 418/739/143
f 418/744/144 407/727/144 403/581/144 416/584/144
f 402/568/145 408/567/145 414/732/145 406/724/145
f 406/729/146 414/736/146 410/582/146 403/581/146
f 409/579/147 422/578/147 428/749/147 413/733/147
f 413/738/148 428/753/148 424/583/148 410/582/148
f 423/586/149 417/585/149 420/742/149 427/750/149
f 427/750/150 420/742/150 416/584/150 424/583/150
f 443/550/151 415/549/151 421/741/151 446/765/151
f 446/769/152 421/745/152 417/585/152 444/588/152
f 422/578/153 450/577/153 456/772/153 425/747/153
f 425/752/154 456/774/154 452/587/154 423/586/154
f 451/570/155 445/569/155 448/768/155 455/773/155
f 455/773/156 448/768/156 444/588/156 452/587/156
f 429/551/157 443/550/157 449/767/157 432/755/157
f 432/755/158 449/767/158 445/569/158 430/572/158
f 450/577/159 436/580/159 442/762/159 453/770/159
f 453/770/160 442/762/160 438/571/160 451/570/160
f 437/566/161 431/565/161 434/758/161 441/763/161
f 441/763/162 434/758/162 430/572/162 438/571/162
f 401/552/163 429/551/163 435/757/163 404/721/163
f 404/726/164 435/759/164 431/565/164 402/568/164
f 436/580/165 409/579/165 411/735/165 439/760/165
f 439/764/166 411/730/166 408/567/166 437/566/166
f 471/573/143 457/576/143 463/777/143 474/793/143
f 474/798/144 463/781/144 459/601/144 472/604/144
f 458/592/145 464/591/145 470/786/145 462/778/145
f 462/783/146 470/790/146 466/602/146 459/601/146
f 465/599/147 478/598/147 484/803/147 469/787/147
f 469/792/148 484/807/148 480/603/148 466/602/148
f 479/606/149 473/605/149 476/796/149 483/804/149
f 483/804/150 476/796/150 472/604/150 480/603/150
f 499/574/151 471/573/151 477/795/151 502/819/151
f 502/823/152 477/799/152 473/605/152 500/608/152
f 478/598/153 506/597/153 512/826/153 481/801/153
f 481/806/154 512/828/154 508/607/154 479/606/154
f 507/594/155 501/593/155 504/822/155 511/827/155
f 511/827/156 504/822/156 500/608/156 508/607/156
f 485/575/157 499/574/157 505/821/157 488/809/157
f 488/809/158 505/821/158 501/593/158 486/596/158
f 506/597/159 492/600/159 498/816/159 509/824/159
f 509/824/160 498/816/160 494/595/160 507/594/160
f 493/590/161 487/589/161 490/812/161 497/817/161
f 497/817/162 490/812/162 486/596/162 494/595/162
f 457/576/163 485/575/163 491/811/163 460/775/163
f 460/780/164 491/813/164 487/589/164 458/592/164
f 492/600/165 465/599/165 467/789/165 495/814/165
f 495/818/166 467/784/166 464/591/166 493/590/166
f 303/628/115 331/656/115 317/645/115 289/609/115
o Plane
v 1.000000 2.064360 -0.000000
v 5.000000 2.064360 -0.000000
v 1.000000 10.064360 0.000000
v 5.000000 10.064360 0.000000
vt 0.000000 0.000000
vt 1.000000 0.000000
vt 1.000000 1.000000
vt 0.000000 1.000000
vn 0.0000 -0.0000 1.0000
usemtl Material
s off
f 513/829/167 514/830/167 516/831/167 515/832/167
